stepDefinition\GetSystemValues.class
com\api\get\GetBase.class
com\api\get\Get.class
runConfig\RunTest.class
com\api\utils\Constants.class
com\api\delete\DeleteTemplate.class
com\api\delete\DeleteReq.class
