E:\Eclipse workspace\Mod2\total-talent-system\src\test\java\runConfig\RunTest.java
E:\Eclipse workspace\Mod2\total-talent-system\src\test\java\com\api\delete\DeleteReq.java
E:\Eclipse workspace\Mod2\total-talent-system\src\test\java\com\api\delete\DeleteTemplate.java
E:\Eclipse workspace\Mod2\total-talent-system\src\test\java\com\api\utils\Constants.java
E:\Eclipse workspace\Mod2\total-talent-system\src\test\java\stepDefinition\GetSystemValues.java
E:\Eclipse workspace\Mod2\total-talent-system\src\test\java\com\api\get\GetBase.java
E:\Eclipse workspace\Mod2\total-talent-system\src\test\java\com\api\get\Get.java
